{/usr/local/Wolfram/Mathematica/12.2/SystemFiles/Kernel/Binaries/Linux-x86-64/WolframKernel, -script, ../GlobalMapNumerators_alt.wl, -colourfilespath, /home/moodie/git/ffamps_scratch/2q2gA/colour, -numeratorfilespath, /home/moodie/git/ffamps_scratch/2q2gA/numerators, -topologypath, /home/moodie/git/myfiniteflowexamples/ibpsv2/1L_2q2gA, -mi2pfuncpath, /home/moodie/git/ffamps_scratch/2q2gA/mi2pfunc, -ibpdir, /home/moodie/git/ffamps_scratch/2q2gA/ibp/1L, -process, 2q2gA, -looporder, 1L, -helicity, -+-++, -closedloopfactor, fl[ClosedLoop1[qk,GA]*OO[qk[-4],qk[-2]]*Q[qk]], -ncfactor, Nc^0, -colourfactor, T[2,3,4,1], -dsm2factor, dsm2^0, -mi2pfuncsuffix, Ncp0_qkGA_Oqkm4qkm2Qqk, -psmode, PSanalyticX1, -numeratorpsmode, PSanalytic, -outfileprefix, amp, -generatesamplepoints, 100, -sampleprime, 2,3,4, -ffnthreads, 64, -reconstructapart, ex[4], -micoefficientorder, 2, -specialfunctionorder, 2}
Loading from /home/moodie/git/ffamps_scratch/2q2gA/numerators/DiagramNumerators_1L_2q2gA_T2341_qkGA_Oqkm4qkm2Qqk_Ncp0_dsm2p0.m
running 1L 2q2gA T[2,3,4,1] fl[ClosedLoop1[qk,GA]*OO[qk[-4],qk[-2]]*Q[qk]] Nc^0 dsm2^0 -+-++
Sample primes = {2, 3, 4}
Setting up massless 5-point kinematics from Setup_2q2gA.m
{ex[1] -> 1, s[1, 2] -> 1, s[2, 3] -> ex[4], s[3, 4] -> (-(ex[2]*ex[3]) + ex[4] + ex[3]*ex[4] + ex[2]*ex[3]*ex[5])/ex[2], s[4, 5] -> ex[5], s[1, 5] -> ex[3]*(ex[2] - ex[4] + ex[5])}
Dividing numerators and poles by 1
Found 6 integral topologies
Substituting values into numerators
{ex[1] -> 1, s[1, 2] -> 1, s[2, 3] -> ex[4], s[3, 4] -> (-(ex[2]*ex[3]) + ex[4] + ex[3]*ex[4] + ex[2]*ex[3]*ex[5])/ex[2], s[4, 5] -> ex[5], s[1, 5] -> ex[3]*(ex[2] - ex[4] + ex[5])}
3 numerator(s) loaded.
MaxCutTopologyList = {topo[{{1}, {2}, {3}, {4}, {5}}], topo[{{1}, {2}, {3}, {5}, {4}}], topo[{{1}, {2}, {5}, {3}, {4}}]}
families = families
topofamiliesperm = {pentagon}
Finding maps to master topologies...
Setting topology rules
1 topo[{{3}, {4}, {1, 2}, {5}}]
2 topo[{{3}, {4}, {5}, {1, 2}}]
3 topo[{{3}, {5}, {4}, {1, 2}}]
Creating numerator nodes
1 topo[{{3}, {4}, {1, 2}, {5}}]
stage 1: 1.`1.4515449934959739*^-5
stage 2: 0.478561`6.131482296684949
stage 3: 0.487822`6.1398063759090125
stage 4: 0.49982`6.150358623669469
stage 5: 0.510947`6.15992084705281
stage 6: 0.514588`6.163004647903243
stage 7: 0.517056`6.165082575611033
2 topo[{{3}, {4}, {5}, {1, 2}}]
stage 1: 1.`1.4515449934959717*^-5
stage 2: 0.246277`5.842968848130455
stage 3: 0.255341`5.858665548386885
stage 4: 0.264969`5.874740060200835
stage 5: 0.291953`5.916857935754121
stage 6: 0.29522`5.921690769395669
stage 7: 0.297218`5.924620100953137
3 topo[{{3}, {5}, {4}, {1, 2}}]
stage 1: 1.`1.4515449934959717*^-5
stage 2: 0.25838`5.86380388739411
stage 3: 0.267282`5.878514705848113
stage 4: 0.2773649999999999999`5.89459665114935
stage 5: 0.3049`5.935702417861352
stage 6: 0.308215`5.940398764343999
stage 7: 0.3102029999999999999`5.943190987093306
Using Automatic nthreads
**************** Style[LiteRed v1.83, {Bold, RGBColor[1, 1/3, 1/3]}] ********************
Author: Roman N. Lee, Budker Institute of Nuclear Physics, Novosibirsk.
Release Date: 11.01.2020
LiteRed stands for Loop InTEgrals REDuction.
The package is designed for the search and application of the Integration-By-Part reduction rules. It also contains some other useful tools.
Input file timestamp: Mon 11 Jan 2021 11:19:15
See ?LiteRed`* for a list of functions. 
Valid basis.
    Ds[pentagon] — denominators,
    SPs[pentagon] — scalar products involving loop momenta,
    LMs[pentagon] — loop momenta,
    EMs[pentagon] — external momenta,
    Toj[pentagon] — rules to transform scalar products to denominators.
Integration-By-Part&Lorentz-Invariance identities are generated.
    IBP[pentagon] — integration-by-part identities,
    LI[pentagon] — Lorentz invariance identities.

FrontEndObject::notavail: A front end is not available; certain operations require a front end.

FrontEndObject::notavail: A front end is not available; certain operations require a front end.
Found 11 zero sectors out of 32.
    ZeroSectors[pentagon] — zero sectors,
    NonZeroSectors[pentagon] — nonzero sectors,
    SimpleSectors[pentagon] — simple sectors (no nonzero subsectors),
    BasisSectors[pentagon] — basis sectors (at least one immediate subsector is zero),
    ZerojRule[pentagon] — a rule to nullify all zero j[pentagon…],
    CutDs[pentagon] — a flag list of cut denominatorsj (1=cut).
Constructing Feynman parametrization...
Using Feynman parametrization to determine equivalent simple sectors...

FrontEndObject::notavail: A front end is not available; certain operations require a front end.

General::stop: Further output of FrontEndObject::notavail will be suppressed during this calculation.
Constructing shifts for simple sectors...
    Found 5 unique simple sectors with degeneracies 1, 1, 1, 1, 1 respectively.
Constructing shifts for all nonzero sectors...
    Found 21 unique sectors with degeneracies 1, 1, 1, 1, 1, 1, 1, 1, 1, 1, 1, 1, 1, 1, 1, 1, 1, 1, 1, 1, 1 respectively.
Forming rules...
Found 0 mapped sectors and 21 unique sectors.
    UniqueSectors[pentagon] — unique sectors.
    MappedSectors[pentagon] — mapped sectors.
    SR[pentagon][…] — symmetry relations for j[pentagon,…] from UniqueSectors[pentagon].
    jSymmetries[pentagon,…] — symmetry rules for the sector js[pentagon,…] in UniqueSectors[pentagon].
    jRules[pentagon,…] — reduction rules for j[pentagon,…] from MappedSectors[pentagon].
Families including permutations 3
Removing scaleless integrals.
minimal list of families - topofamiliesperm = {pentagon}
1 topo[{{3}, {4}, {1, 2}, {5}}]
2 topo[{{3}, {4}, {5}, {1, 2}}]
3 topo[{{3}, {5}, {4}, {1, 2}}]
Total number of integrals 378
Mapping each node to full set of integrals.
topo[{{3}, {4}, {1, 2}, {5}}]
Time to compute map 0.035484
True
topo[{{3}, {4}, {5}, {1, 2}}]
Time to compute map 0.033478
True
topo[{{3}, {5}, {4}, {1, 2}}]
Time to compute map 0.033349
True
True
Data on integrand:
Evaluation of random point for full integrand: 0.002282 s

 debug info
Length[integrals] = 378
FFNParsOut[NumNodes] = 378
integrand values = {1709738441809799331, 2240931990026983960, 5172292510036728303, 72667514118486629, 4121898292288155350, 8278725837569399481, 8076565811388574656, 587800835306879121, 5372336369229209367, 8057423350024913452, 6302287651963948402, 7058234178470133094, 3115055924351133452, 3557285500710639462, 7810968847819641151, 8488812222996808573, 1987096828634907497, 4363307711948719672, 851307777164700444, 8296818240854176337, 8297372202606717287, 3475256690859699669, 3796787751530401339, 4926404892455493733, 1591393808076959741, 7068810302710257585, 5501730261395195922, 8579304437315855323, 8541546013638295045, 1414216804464781169, 8139089447141333338, 661894329305950716, 6343357566087669067, 8807892762562943384, 4038148150218765870, 8939028067013965627, 4525689425581927275, 3332915092261000012, 365306160076859185, 6336499253819061993, 533868198656565460, 5127133242711074178, 7091296199922471540, 3078126766319980416, 718952427223228108, 3852345835551874722, 5191549555312635185, 4891629426544457416, 4588333460089506645, 8673504032521674206, 197229604865422912, 5064841558068476159, 4877116343895034746, 3724050291829750723, 267170722098508467, 6196028819514763085, 2648059529589683407, 4150769363195381344, 7766757259037432048, 1685094679113080660, 3995907091494805777, 4104542754920425616, 8526857533893869388, 3908449262567837141, 8032067404176914149, 1572951574265510858, 6217422832281197934, 7545815089366059850, 837097066722157385, 8809138114773458682, 1511140234296880369, 897381792209017041, 3741636798035560070, 7525518164665669002, 3589411465358635378, 378704883623707281, 3019785278996974331, 486325595398664577, 1232111000158410735, 8736984785983243248, 255967195314375779, 7594770206508420997, 2445480048597777806, 1548628455259354522, 3331315370251725411, 1277072893719327801, 5471681232618620463, 4208200948048977683, 2044647977265121499, 4042315618988895251, 8132611478510220125, 6256451944788467050, 7698082230454591381, 7969898956874475018, 8160791675323133576, 8115400354148546569, 8940632931171227335, 2897090702037249233, 7299539047295737061, 509497093611438430, 362523570611141666, 4666887201091578145, 5749452753567002818, 629747834367574597, 4294885146544685050, 4390122264756600278, 5052104513816091236, 7637553058886442864, 1775666148812468217, 5894283469092290917, 512922239531919038, 9219879714930820832, 1007506398492737043, 2852099843262153437, 5780517343188439090, 8541851522676138270, 6405841710932148067, 6085373649526305356, 21936592164412955, 8199483858652300353, 9213128721509580965, 1215468027551891675, 4379519725337633180, 947504468321144118, 2137413140657567186, 378027489285050778, 3552156845854805763, 4867704976954266913, 998513762244239479, 5242888865892497732, 2352381122054100173, 6203846913242726879, 1281684649332915999, 1138085812248809118, 1546497603810739848, 7819048464976145646, 3873388494045674107, 5499707348987953557, 8269784376197718434, 4267289937409174246, 8542281448814160697, 5739673514309825524, 9092564577968276389, 7845043540315342404, 4328720900451603166, 3827754685498696366, 8937771993619410381, 5160351369972780329, 7705237014098238480, 5186043629403190395, 5957784095333501272, 7797254832469000766, 3803876389206089141, 4158113656558394603, 7440976059754435051, 2180411742029858183, 2448102024839285983, 5150715937899500294, 6045225661673124081, 2985751533000324867, 4860117915886784, 8076816759275150101, 3272216345601626510, 8791188204391009088, 3482359819041218259, 331448240178954719, 9097522283584218432, 8088500873079143970, 331483023526404852, 7544041869269757442, 8865562029624627330, 2486226552753047742, 3980101280801244846, 1928212967972213131, 2683972508388779224, 806358122279739914, 4519011820579487091, 3247465203746328215, 8707755619606950120, 1909385351940482798, 4591240220672704727, 2987245911407809211, 2648059529589683407, 4150769363195381344, 228479901295736925, 7538277357741695123, 771784237980207743, 4104542754920425616, 3211934759606930746, 5314922774286938642, 3906694773175170109, 8627471473268866177, 1331755071129263079, 6272976017721684199, 837097066722157385, 5236399858984267700, 8428278075429973603, 897381792209017041, 2043782925846453289, 1697853872189106781, 3599296356446835723, 4630601162779092347, 3739364757540979982, 1546202177360775730, 1232111000158410735, 2564764863689900677, 476772140183253619, 8356394536552126114, 5937402477316165672, 8753959111663986889, 6732546177543882677, 559913483490040130, 3410887405024439157, 5015171088805798100, 5140322644736030966, 5156018194087932609, 6541663305483315665, 6256451944788467050, 6444609150474290616, 1253473079980300765, 1706676328766946437, 5908828258905959399, 4130405084801625892, 1219568850647847193, 7299539047295737061, 1022203858054744870, 3975024582311323943, 3902034086380157311, 8864977960958177405, 3369067221215280202, 8760800249494462076, 254010436061003526, 2685441212453225041, 1585818977968332919, 6314690908673869071, 2980171729742899327, 4537272490522552085, 4862001059980642430, 1206954003763005141, 8939681362269505464, 3659330346514377859, 6307238319669540164, 4172966837399499713, 7499498313975679510, 3816138985343135057, 5909288805627631046, 2917320664209391838, 1215468027551891675, 2088060346627658614, 29234545656611257, 7184321911396111041, 8405613209906836681, 3552156845854805763, 4867704976954266913, 6241402628136737211, 3980483170962278051, 7595269987946597905, 9178004867338260718, 1281684649332915999, 2684583416059548966, 7676874433044035935, 142174031932109711, 5353084541260362003, 1062421165785945949, 7920984705746957867, 5438869809630492768, 4175280209545687374, 5739673514309825524, 7098204503976399912, 7690817363513698396, 714214919020153513, 7023579222574374403, 427317625986409168, 5160351369972780329, 3667908606646653092, 4037328407451585388, 1920455687881915884, 1315108658403843831, 1186720033748993944, 169054330617809214, 3199265630181350348, 4123000587783326, 2448102024839285983, 8399824086131479306, 2189941119443174998, 1361197458884335361, 7328681767713992116, 7776945866010591661, 6694284040668547310, 7190323570310698425, 6308750089781876935, 130023163639498290, 2591082052278401404, 1319653160129178526, 920621089990057375, 4439664779141917426, 1827758943554592378, 7388289535283055482, 5243270756053530937, 4645144773521171886, 7284438123638678862, 1843656173081650852, 3743032659205998802, 532436976021232026, 6199055953805372228, 693826603421887129, 6225862650697045241, 5697810519980983589, 2648059529589683407, 4379249264491118269, 8994892135559038858, 7766757259037432048, 5629079058150076164, 6720576950941446756, 7203238404419664249, 8666811477851313255, 66704186799298811, 8627471473268866177, 9083418092897331916, 6770204805935619658, 1572951574265510858, 7039487408793759676, 5458774537116938714, 6704788380531913008, 519319286358086807, 1631929783833389845, 6016501051137963599, 2029668661871143340, 7996609074648729343, 368636152805110239, 7161751478037196512, 4554728524903548759, 2682152643736986272, 866977500302649669, 3336469976408216665, 3408011898862142370, 2440325442441286552, 5951565094372782082, 9127819434621859908, 7594770206508420997, 564827886290850111, 2407780887577539345, 3398647389122322000, 8927180426819965240, 5923860053779403631, 308578038868929789, 1580409207387349014, 670076693656406997, 848739705244517230, 5783337379928058442, 8977481207548876986, 2987295947012100234, 4825437901262728035, 4320077784261600318, 8748978656317167657, 6781989793632761346, 8802580613186300636, 7437956328708374369, 2231341421275968656, 5660424311888495384, 3850263321858928332, 2938930528857514993, 4066321026657918987, 4862001059980642430, 7015157866878752488, 6540763906276312438, 8782082607122920513, 4611295399231517435, 8277138842130796986, 8229834926057858544, 6030590298795297695, 5689384400429968079, 3092741874421960709, 9219879714930820832, 2741983604962671753, 7797363043829571698, 7786556336556446212, 1151315426947721495}

starting IBP reduction using numerical sampling for each permutation
lists used are:
list of families with given permutation - topofamilies = {topo[{{1}, {2}, {3}, {4}, {5}}] -> pentagonp12345, topo[{{1}, {2}, {3}, {5}, {4}}] -> pentagonp12354, topo[{{1}, {2}, {4}, {3}, {5}}] -> pentagonp12435, topo[{{1}, {2}, {4}, {5}, {3}}] -> pentagonp12453, topo[{{1}, {2}, {5}, {3}, {4}}] -> pentagonp12534, topo[{{1}, {2}, {5}, {4}, {3}}] -> pentagonp12543, topo[{{1}, {3}, {2}, {4}, {5}}] -> pentagonp13245, topo[{{1}, {3}, {2}, {5}, {4}}] -> pentagonp13254, topo[{{1}, {3}, {4}, {2}, {5}}] -> pentagonp13425, topo[{{1}, {3}, {4}, {5}, {2}}] -> pentagonp13452, topo[{{1}, {3}, {5}, {2}, {4}}] -> pentagonp13524, topo[{{1}, {3}, {5}, {4}, {2}}] -> pentagonp13542, topo[{{1}, {4}, {2}, {3}, {5}}] -> pentagonp14235, topo[{{1}, {4}, {2}, {5}, {3}}] -> pentagonp14253, topo[{{1}, {4}, {3}, {2}, {5}}] -> pentagonp14325, topo[{{1}, {4}, {3}, {5}, {2}}] -> pentagonp14352, topo[{{1}, {4}, {5}, {2}, {3}}] -> pentagonp14523, topo[{{1}, {4}, {5}, {3}, {2}}] -> pentagonp14532, topo[{{1}, {5}, {2}, {3}, {4}}] -> pentagonp15234, topo[{{1}, {5}, {2}, {4}, {3}}] -> pentagonp15243, topo[{{1}, {5}, {3}, {2}, {4}}] -> pentagonp15324, topo[{{1}, {5}, {3}, {4}, {2}}] -> pentagonp15342, topo[{{1}, {5}, {4}, {2}, {3}}] -> pentagonp15423, topo[{{1}, {5}, {4}, {3}, {2}}] -> pentagonp15432}
minimal list of families - topofamiliesperm = {pentagon}
neededtopofamiliesperm: {pentagon}
IBP graph for family pentagon
/home/moodie/git/ffamps_scratch/2q2gA/ibp/1L/ibpspentagon
{mi[pentagon, 11], mi[pentagon, 10], mi[pentagon, 9], mi[pentagon, 8], mi[pentagon, 7], mi[pentagon, 6], mi[pentagon, 5], mi[pentagon, 4], mi[pentagon, 3], mi[pentagon, 2], mi[pentagon, 1]}
neqs = 5787
- Learning pentagon...
- learning done!
fmasters[pentagon] = {mi[pentagon, 7], mi[pentagon, 5], mi[pentagon, 4], mi[pentagon, 2]}
neededfamilies = {pentagonp12345, pentagonp12354, pentagonp12534}
adding NumNodes to ibpgraphall: True
neededfamilies: {pentagonp12345, pentagonp12354, pentagonp12534}
neededperms: {12345, 12354, 12534}
DEBUG: perm[12345] < {612990914, 173577539, 369735496, 373049272, 699719610} = $Failed
DEBUG: perm[12354] < {784346699, 829099536, 333957910, 883672149, 133298776} = $Failed
DEBUG: perm[12534] < {770442243, 967049756, 272408422, 169568776, 967164698} = $Failed
DEBUG: ibpin[pentagonp12345] < {840806054, 791963148, 565958686, 807314258, 655567243} = $Failed
DEBUG: ibpin[pentagonp12354] < {419847617, 798776422, 798559386, 84514399, 819502977} = $Failed
DEBUG: ibpin[pentagonp12534] < {809453872, 334390097, 974409356, 42166275, 602351803} = $Failed
DEBUG: pentagon < {535045259, 781031903, 666237470, 896036124, 905062} = $Failed
fammaps = {}
WARNING - assumes master integral list has form mi[...]
minimalmasters = {mi[pentagonp12345, 2], mi[pentagonp12345, 4], mi[pentagonp12345, 5], mi[pentagonp12354, 4], mi[pentagonp12453, 7], mi[pentagonp12534, 7], mi[pentagonp13452, 6]}
True
True
setting ibpgraphall output: Null
FFNParsOut[ibpgraphall,all] = 12
FFNParsOut[ibpgraphall,mismaps] = 12
FFNParsOut[ibpgraphall,tomapped] = 7
Data on reduced amplitude:
Evaluation of random point for full reduced amplitude 0.201385 7
Expanding in special functions up to epsilon order 2
determining eps factors from univariate fit
True
True
True
True
Null
eps factors reconstructed in 0.110407`5.494541602803999
found some prefactors: {1/((-3/2 + eps)*(-1 + eps)*(-1/2 + eps)), 1/((-3/2 + eps)*(-1/2 + eps))}
True
True
True
True
eps factors for check reconstructed in 0.213672`5.781292608583721
eps factors reconstructed
loading eps factors from file will save 0.221422`5.796765762721291
Null
Laurent expansion of normalised amplitude learned 0.282982`5.903303805171179
Laurent expansion completed 0.303325`5.933453199766427
reading map to special functions from /home/moodie/git/ffamps_scratch/2q2gA/mi2pfunc/v2_matrixmis_1L_2q2gA_T2341_Ncp0_qkGA_Oqkm4qkm2Qqk.m
removing rows {}
map to special functions True
setting ibpgraphall output: Null
Performing Laurent expansion True
setting epsexpgraph output: Null
Learned Laurent in : {0.018679, Null}
Numerical evaluation mod prime in : {0.007727, Null}
Computed univariate slice in : {0.185977, Null}
writing to unislice_2_amp_1L_2q2gA_T2341_qkGA_Oqkm4qkm2Qqk_Ncp0_dsm2p0_m+m++_PSanalyticX1.m
Maximal degrees without linear relations = {deg[36, 30]}
===============================
Looping over sample primes to find linear relations
sampleprime = 2
reconstructing a batch of 100 points
writing to batcheval_100_2_amp_1L_2q2gA_T2341_qkGA_Oqkm4qkm2Qqk_Ncp0_dsm2p0_m+m++_PSanalyticX1.m
found 100 evaluations for 122 coefficients
system has closed
found 105 linear relations
prime different from default - should be ok but be careful
number of indep. coeffs in evaluations 17
maximal degree before linear relations: 36
maximal degree after linear relations: 17
{{eps^2*deg[6], mono[F[1, 1, 1]^2*tci[1, 1]^2]}, {eps^2*deg[7], mono[F[3, 18]]}, {eps^2*deg[7], mono[F[1, 1, 3]*F[1, 1, 8]]}, {eps^2*deg[11], mono[F[3, 4]]}, {eps^2*deg[11], mono[F[1, 1, 3]^3]}, {eps^2*deg[11], mono[F[1, 1, 3]*F[1, 1, 4]]}, {eps^2*deg[11], mono[F[1, 1, 8]^3]}, {eps^2*deg[12], mono[F[3, 12]]}, {eps^2*deg[12], mono[F[1, 1, 4]*F[1, 1, 8]]}, {eps^2*deg[14], mono[F[1, 1, 4]]}, {eps^2*deg[14], mono[F[1, 1, 4]^2]}, {eps*deg[10] + eps^2*deg[15], mono[tci[1, 2]]}, {eps^2*deg[16], mono[F[1, 1, 3]]}, {eps^2*deg[16], mono[F[1, 1, 3]^2]}, {eps^2*deg[17], mono[F[1, 1, 8]]}, {eps^2*deg[17], mono[F[1, 1, 8]^2]}}
------------------------------
sampleprime = 3
reconstructing a batch of 20 points
writing to batcheval_20_3_amp_1L_2q2gA_T2341_qkGA_Oqkm4qkm2Qqk_Ncp0_dsm2p0_m+m++_PSanalyticX1.m
found 20 evaluations for 122 coefficients
system has closed
found 105 linear relations
prime different from default - should be ok but be careful
number of indep. coeffs in evaluations 17
maximal degree before linear relations: 36
maximal degree after linear relations: 17
{{eps^2*deg[6], mono[F[1, 1, 1]^2*tci[1, 1]^2]}, {eps^2*deg[7], mono[F[3, 18]]}, {eps^2*deg[7], mono[F[1, 1, 3]*F[1, 1, 8]]}, {eps^2*deg[11], mono[F[3, 4]]}, {eps^2*deg[11], mono[F[1, 1, 3]^3]}, {eps^2*deg[11], mono[F[1, 1, 3]*F[1, 1, 4]]}, {eps^2*deg[11], mono[F[1, 1, 8]^3]}, {eps^2*deg[12], mono[F[3, 12]]}, {eps^2*deg[12], mono[F[1, 1, 4]*F[1, 1, 8]]}, {eps^2*deg[14], mono[F[1, 1, 4]]}, {eps^2*deg[14], mono[F[1, 1, 4]^2]}, {eps*deg[10] + eps^2*deg[15], mono[tci[1, 2]]}, {eps^2*deg[16], mono[F[1, 1, 3]]}, {eps^2*deg[16], mono[F[1, 1, 3]^2]}, {eps^2*deg[17], mono[F[1, 1, 8]]}, {eps^2*deg[17], mono[F[1, 1, 8]^2]}}
Merging relations with chinese remainder theorem
The relations already match
------------------------------
sampleprime = 4
reconstructing a batch of 20 points
writing to batcheval_20_4_amp_1L_2q2gA_T2341_qkGA_Oqkm4qkm2Qqk_Ncp0_dsm2p0_m+m++_PSanalyticX1.m
found 20 evaluations for 122 coefficients
system has closed
found 105 linear relations
prime different from default - should be ok but be careful
number of indep. coeffs in evaluations 17
maximal degree before linear relations: 36
maximal degree after linear relations: 17
{{eps^2*deg[6], mono[F[1, 1, 1]^2*tci[1, 1]^2]}, {eps^2*deg[7], mono[F[3, 18]]}, {eps^2*deg[7], mono[F[1, 1, 3]*F[1, 1, 8]]}, {eps^2*deg[11], mono[F[3, 4]]}, {eps^2*deg[11], mono[F[1, 1, 3]^3]}, {eps^2*deg[11], mono[F[1, 1, 3]*F[1, 1, 4]]}, {eps^2*deg[11], mono[F[1, 1, 8]^3]}, {eps^2*deg[12], mono[F[3, 12]]}, {eps^2*deg[12], mono[F[1, 1, 4]*F[1, 1, 8]]}, {eps^2*deg[14], mono[F[1, 1, 4]]}, {eps^2*deg[14], mono[F[1, 1, 4]^2]}, {eps*deg[10] + eps^2*deg[15], mono[tci[1, 2]]}, {eps^2*deg[16], mono[F[1, 1, 3]]}, {eps^2*deg[16], mono[F[1, 1, 3]^2]}, {eps^2*deg[17], mono[F[1, 1, 8]]}, {eps^2*deg[17], mono[F[1, 1, 8]^2]}}
Merging relations with chinese remainder theorem
The relations already match
------------------------------
End of loop over sample primes
===============================
Reading linear relations from linrels_2_3_4_amp_1L_2q2gA_T2341_qkGA_Oqkm4qkm2Qqk_Ncp0_dsm2p0_m+m++_PSanalyticX1.m
remaining coefficients after linear relations = 17
test evaluation in : {0.008157, Null}
partial fractioning w.r.t. ex[4]
reconstructing with 64 cores
computing univariate slice in {ex[4], ex[2], ex[3], ex[5]}
-> 0.161057`5.6585245987479755 s
degrees before normalisation {max num., max den.}{17, 12}
matching coefficient factors
degrees after normalisation {max num., max den.}{13, 0}
True
True
computing univariate slice in ex[4]
-> 0.117226`5.520568939685101 s
finding independent factors
constructing ansaetze for partial fractions
True
preparing multi-fit graph
learning
ZEROVARS={c[4, 3], c[9, 3], c[12, 4], c[13, 4], c[16, 4], c[17, 4]}
FITLEARN={{DepVars -> {c[1, 1]}, IndepVars -> {}, ZeroVars -> {}}, {DepVars -> {c[2, 1], c[2, 2], c[2, 3]}, IndepVars -> {}, ZeroVars -> {}}, {DepVars -> {c[3, 1], c[3, 2], c[3, 3], c[3, 4], c[3, 5]}, IndepVars -> {}, ZeroVars -> {}}, {DepVars -> {c[4, 1], c[4, 2]}, IndepVars -> {}, ZeroVars -> {c[4, 3]}}, {DepVars -> {c[5, 1], c[5, 2], c[5, 3], c[5, 4], c[5, 5], c[5, 6]}, IndepVars -> {}, ZeroVars -> {}}, {DepVars -> {c[6, 1], c[6, 2], c[6, 3], c[6, 4], c[6, 5], c[6, 6]}, IndepVars -> {}, ZeroVars -> {}}, {DepVars -> {c[7, 1], c[7, 2], c[7, 3], c[7, 4], c[7, 5]}, IndepVars -> {}, ZeroVars -> {}}, {DepVars -> {c[8, 1], c[8, 2], c[8, 3], c[8, 4], c[8, 5]}, IndepVars -> {}, ZeroVars -> {}}, {DepVars -> {c[9, 1], c[9, 2]}, IndepVars -> {}, ZeroVars -> {c[9, 3]}}, {DepVars -> {c[10, 1], c[10, 2], c[10, 3], c[10, 4], c[10, 5], c[10, 6]}, IndepVars -> {}, ZeroVars -> {}}, {DepVars -> {c[11, 1], c[11, 2], c[11, 3], c[11, 4], c[11, 5], c[11, 6]}, IndepVars -> {}, ZeroVars -> {}}, {DepVars -> {c[12, 1], c[12, 2], c[12, 3]}, IndepVars -> {}, ZeroVars -> {c[12, 4]}}, {DepVars -> {c[13, 1], c[13, 2], c[13, 3]}, IndepVars -> {}, ZeroVars -> {c[13, 4]}}, {DepVars -> {c[14, 1], c[14, 2], c[14, 3]}, IndepVars -> {}, ZeroVars -> {}}, {DepVars -> {c[15, 1], c[15, 2], c[15, 3]}, IndepVars -> {}, ZeroVars -> {}}, {DepVars -> {c[16, 1], c[16, 2], c[16, 3]}, IndepVars -> {}, ZeroVars -> {c[16, 4]}}, {DepVars -> {c[17, 1], c[17, 2], c[17, 3]}, IndepVars -> {}, ZeroVars -> {c[17, 4]}}}
-> 0.150235`5.628316114820141 s
computing univariate slice in {ex[2], ex[3], ex[5]}
->0.218881`5.791753057698504 s
degrees before normalisation {max num., max den.}{13, 2}
guessing factors
degrees after normalisation {max num., max den.}{3, 0}
COEFFNORM2={ex[2]^2*ex[3]^2, ex[2]^3*ex[3]^4*ex[5]^2, ex[2]^3*ex[3]^2*(1 + ex[3])^2*ex[5]^2, ex[2]^2*ex[3]^2*ex[5], ex[2]^3*ex[3]^2*(1 + ex[3])*ex[5]^2, ex[2]^3*ex[3]^4*ex[5]^2, ex[2]^3*ex[3]^4*ex[5]^2, ex[2]^3*ex[3]^2*(1 + ex[3])^2*ex[5]^2, ex[2]^2*ex[3]^2*ex[5], ex[2]^3*ex[3]^3*(1 + ex[3])*ex[5], ex[2]^4*ex[3]^4*ex[5]^2, (ex[2]^3*ex[3]^2*ex[5])/(1 + ex[3]), ex[2]^4*ex[3]^2*(-1 + ex[5])*ex[5]^2, ex[2]^3*ex[3]^3*ex[5], ex[2]^4*ex[3]^4*ex[5]^2, ex[2]*ex[3]^2*(1 + ex[3]), ex[2]^2*ex[3]^2, (ex[2]^3*ex[3]^2*ex[5])/(1 + ex[3]), ex[2]^4*ex[3]^2*(-1 + ex[5])*ex[5]^2, ex[2]^3*ex[3]^3*ex[5], ex[2]^4*ex[3]^4*ex[5]^2, ex[2]*ex[3]^2*(1 + ex[3]), ex[2]^2*ex[3]^2, (ex[2]^3*ex[3]^2*ex[5]^2)/((1 + ex[3])*(-1 + ex[5])), ex[2]^4*ex[3]^2*ex[5]^3, (ex[2]^3*ex[3]^2*ex[5]^2)/(-1 + ex[5]), ex[2]^4*ex[3]^4*ex[5]^3, ex[2]^2*ex[3]^2*ex[5], (ex[2]^3*ex[3]^2*ex[5]^2)/((1 + ex[3])*(-1 + ex[5])), ex[2]^4*ex[3]^2*ex[5]^3, (ex[2]^3*ex[3]^2*ex[5]^2)/(-1 + ex[5]), ex[2]^4*ex[3]^4*ex[5]^3, ex[2]^2*ex[3]^2*ex[5], ex[2]^3*ex[3]^3*(1 + ex[3])*ex[5], ex[2]^4*ex[3]^2*(1 + ex[3])^2*ex[5]^2, ex[2]^3*ex[3]^2*ex[5], ex[2]^4*ex[3]^4*(-1 + ex[5])*ex[5]^2, ex[2]^3*ex[3]^2*(1 + ex[3])*ex[5], ex[2]^4*ex[3]^2*(1 + ex[3])^2*ex[5]^2, ex[2]*ex[3]^2*(1 + ex[3]), ex[2]^2*ex[3]^2, ex[2]^3*ex[3]^2*ex[5], ex[2]^4*ex[3]^4*(-1 + ex[5])*ex[5]^2, ex[2]^3*ex[3]^2*(1 + ex[3])*ex[5], ex[2]^4*ex[3]^2*(1 + ex[3])^2*ex[5]^2, ex[2]*ex[3]^2*(1 + ex[3]), ex[2]^2*ex[3]^2, ex[2]^3*ex[3]^2*ex[5], ex[2]^4*ex[3]^2*ex[5]^2, ex[2]^5*ex[3]^4*(-1 + ex[5])*ex[5]^3, ex[2]^3*ex[3]^2*ex[5], ex[2]^4*ex[3]^2*ex[5]^2, ex[2]^5*ex[3]^4*(-1 + ex[5])*ex[5]^3, (ex[2]*ex[3]^2*(1 + ex[3]))/ex[5], (ex[3]^2*(1 + ex[3])^2)/ex[5], (ex[2]^2*ex[3]^2)/ex[5], (ex[2]*ex[3]^2*(1 + ex[3]))/ex[5], (ex[3]^2*(1 + ex[3])^2)/ex[5], (ex[2]^2*ex[3]^2)/ex[5], (ex[2]^3*ex[3]^2*ex[5])/(1 + ex[3]), (ex[2]^4*ex[3]^2*ex[5]^2)/(1 + ex[3])^2, (ex[2]^5*ex[3]^2*(-1 + ex[5])*ex[5]^3)/(1 + ex[3]), (ex[2]^3*ex[3]^2*ex[5])/(1 + ex[3]), (ex[2]^4*ex[3]^2*ex[5]^2)/(1 + ex[3])^2, (ex[2]^5*ex[3]^2*(-1 + ex[5])*ex[5]^3)/(1 + ex[3])}
FITCOEFFICIENTS={{c[1, 1]}, {c[2, 1], c[2, 2], c[2, 3]}, {c[3, 1], c[3, 2], c[3, 3], c[3, 4], c[3, 5]}, {c[4, 1], c[4, 2], c[4, 3]}, {c[5, 1], c[5, 2], c[5, 3], c[5, 4], c[5, 5], c[5, 6]}, {c[6, 1], c[6, 2], c[6, 3], c[6, 4], c[6, 5], c[6, 6]}, {c[7, 1], c[7, 2], c[7, 3], c[7, 4], c[7, 5]}, {c[8, 1], c[8, 2], c[8, 3], c[8, 4], c[8, 5]}, {c[9, 1], c[9, 2], c[9, 3]}, {c[10, 1], c[10, 2], c[10, 3], c[10, 4], c[10, 5], c[10, 6]}, {c[11, 1], c[11, 2], c[11, 3], c[11, 4], c[11, 5], c[11, 6]}, {c[12, 1], c[12, 2], c[12, 3], c[12, 4]}, {c[13, 1], c[13, 2], c[13, 3], c[13, 4]}, {c[14, 1], c[14, 2], c[14, 3]}, {c[15, 1], c[15, 2], c[15, 3]}, {c[16, 1], c[16, 2], c[16, 3], c[16, 4]}, {c[17, 1], c[17, 2], c[17, 3], c[17, 4]}}
True
True
computing degrees
degrees in ex[2]
->0.321804`5.959136431540931 s
degrees in ex[3]
->0.21826`5.790519144363055 s
degrees in ex[5]
->0.227428`5.8083889256898305 s
dumping degrees to degrees_amp_1L_2q2gA_T2341_qkGA_Oqkm4qkm2Qqk_Ncp0_dsm2p0_m+m++.fflow
reconstructing... this may take some time
Generated 17 sample points
Approximate time per evaluation (single core): 0.0696647 sec.
-> 0.177068`5.69968507541373 s
final check (brace yourself): True
writing to amp_1L_2q2gA_T2341_qkGA_Oqkm4qkm2Qqk_Ncp0_dsm2p0_m+m++_PSanalyticX1.m
